<?xml version="1.0" encoding="UTF-8" standalone="no"?>
<svg
   xmlns:dc="http://purl.org/dc/elements/1.1/"
   xmlns:cc="http://web.resource.org/cc/"
   xmlns:rdf="http://www.w3.org/1999/02/22-rdf-syntax-ns#"
   xmlns:svg="http://www.w3.org/2000/svg"
   xmlns="http://www.w3.org/2000/svg"
   xmlns:xlink="http://www.w3.org/1999/xlink"
   xmlns:sodipodi="http://inkscape.sourceforge.net/DTD/sodipodi-0.dtd"
   xmlns:inkscape="http://www.inkscape.org/namespaces/inkscape"
   version="1.1"
   width="1330"
   height="700"
   id="Flag of the United States"
   viewBox="0 0 18525 9750"
   sodipodi:version="0.32"
   inkscape:version="0.43"
   sodipodi:docname="US_13_Star_Betsy_Ross_Flag_klein.svg"
   sodipodi:docbase="d:\Dateien\Wikipediazeugs\USA">
  <metadata
     id="metadata36">
    <rdf:RDF>
      <cc:Work
         rdf:about="">
        <dc:format>image/svg+xml</dc:format>
        <dc:type
           rdf:resource="http://purl.org/dc/dcmitype/StillImage" />
      </cc:Work>
    </rdf:RDF>
  </metadata>
  <defs
     id="defs34" />
  <sodipodi:namedview
     inkscape:window-height="998"
     inkscape:window-width="1280"
     inkscape:pageshadow="2"
     inkscape:pageopacity="0.0"
     borderopacity="1.0"
     bordercolor="#666666"
     pagecolor="#ffffff"
     id="base"
     inkscape:zoom="0.33750717"
     inkscape:cx="217.34526"
     inkscape:cy="613.39661"
     inkscape:window-x="-4"
     inkscape:window-y="-4"
     inkscape:current-layer="Flag of the United States"
     showborder="false"
     inkscape:showpageshadow="false" />
  <rect
     width="100%"
     height="100%"
     fill="#bf0a30"
     id="red background" />
  <g
     fill="white"
     id="g4">
    <rect
       width="100%"
       height="750"
       y="750"
       id="rect6" />
    <rect
       width="100%"
       height="750"
       y="2250"
       id="rect8" />
    <rect
       width="100%"
       height="750"
       y="3750"
       id="rect10" />
    <rect
       width="100%"
       height="750"
       y="5250"
       id="rect12" />
    <rect
       width="100%"
       height="750"
       y="6750"
       id="rect14" />
    <rect
       width="100%"
       height="750"
       y="8250"
       id="rect16" />
  </g>
  <g
     id="g1521"
     transform="translate(0,-79.49907)">
    <rect
       style="fill:#002868"
       y="83.200829"
       x="0"
       height="5250"
       width="5334.6431"
       id="blue field" />
    <g
       transform="translate(-4.622604,83.19743)"
       id="g1505">
      <g
         id="g1360"
         transform="translate(0.510637,1902.539)">
        <polygon
           style="fill:#ffffff"
           id="polygon1362"
           transform="matrix(300.3,0,0,300.3,617.5,525)"
           points="0,-1 0.58778525,0.80901699 -0.95105652,-0.30901699 0.95105652,-0.30901699 -0.58778525,0.80901699 0,-1 " />
      </g>
      <use
         x="0"
         y="0"
         xlink:href="#g1360"
         id="use1479"
         transform="translate(353.8385,-905.7925)"
         width="18525"
         height="9750" />
      <use
         x="0"
         y="0"
         xlink:href="#g1360"
         id="use1481"
         transform="translate(1081.717,-1593.78)"
         width="18525"
         height="9750" />
      <use
         x="0"
         y="0"
         xlink:href="#g1360"
         id="use1485"
         transform="translate(2050.282,-1812.431)"
         width="18525"
         height="9750" />
      <use
         x="0"
         y="0"
         xlink:href="#g1360"
         id="use1487"
         transform="translate(3018.61,-1580.089)"
         width="18525"
         height="9750" />
      <use
         x="0"
         y="0"
         xlink:href="#g1360"
         id="use1489"
         transform="translate(3751.267,-912.2693)"
         width="18525"
         height="9750" />
      <use
         x="0"
         y="0"
         xlink:href="#g1360"
         id="use1491"
         transform="translate(4107.867,-3.587811e-3)"
         width="18525"
         height="9750" />
      <use
         x="0"
         y="0"
         xlink:href="#g1360"
         id="use1493"
         transform="translate(3978.192,980.9578)"
         width="18525"
         height="9750" />
      <use
         x="0"
         y="0"
         xlink:href="#g1360"
         id="use1495"
         transform="translate(3420.603,1817.341)"
         width="18525"
         height="9750" />
      <use
         x="0"
         y="0"
         xlink:href="#g1360"
         id="use1497"
         transform="translate(2538.827,2258.222)"
         width="18525"
         height="9750" />
      <use
         x="0"
         y="0"
         xlink:href="#g1360"
         id="use1499"
         transform="translate(1546.834,2264.712)"
         width="18525"
         height="9750" />
      <use
         x="0"
         y="0"
         xlink:href="#g1360"
         id="use1501"
         transform="translate(678.0259,1810.864)"
         width="18525"
         height="9750" />
      <use
         x="0"
         y="0"
         xlink:href="#g1360"
         id="use1503"
         transform="translate(128.8363,980.9578)"
         width="18525"
         height="9750" />
    </g>
  </g>
</svg>
